-------------------------------------------------------------------------------
Test set: tests
-------------------------------------------------------------------------------
Tests run: 1, Failures: 0, Errors: 0, Time elapsed: 14.357 sec